Chapter 6 Estimating health impacts | Advanced Epidemiological Analysis
…
Second, we know from fitting the distributed lag non-linear models in an earlier chapter that cold tends to have a more lagged effect on mortality risk, while the effect of heat is more immediate. By limiting the model to lag 0, we’ve likely missed a lot of the effect of cold on mortality risk. We’ll address this in the next part of the exercise, where we’ll expand to use a model with a distributed lag.

Finally, the choice of a baseline is tricky here. We’re using the minimum mortality temperature, and that’s a common choice. However, it’s pretty unrealistic to think that there would be a way that this “safest” baseline scenario would ever be met—you’d never be able to enforce the temperature in a city staying constant year-round. Another approach could be to take a sample “mild” summer and “mild” winter for your study city, and compare the health impacts during more severe years to that milder case. This would require a bit more work to calculate, as your baseline temperature would be changing throughout each season. There’s not a perfect solution to this issue of identifying a baseline, but it’s important to be clear when you communicate the baseline you’re using when you describe your results.

Going back to the attrdl function, you can use the tot = FALSE argument to check out some interesting patterns in attributable numbers over your study. This argument estimates the attributable risk or number for each separate day in the study. For example, you can use it to add a column to your original data with the estimated attributable number for that day:

obs_an_added <- obs %>% 
  select(date, tmean, all) %>% 
  mutate(an = attrdl(x = obs$tmean, cases = obs$all, 
                     basis = temp_basis, model = dlnm_mod_1, 
                     cen = 7, type = "an", tot = FALSE))
obs_an_added

## # A tibble: 8,279 × 4
##    date       tmean   all      an
##    <date>     <dbl> <dbl>   <dbl>
##  1 1990-01-01  3.91   220  1.09  
##  2 1990-01-02  5.55   257  0.0294
##  3 1990-01-03  4.39   245  0.756 
##  4 1990-01-04  5.43   226  0.0685
##  5 1990-01-05  6.87   236 -0.0395
##  6 1990-01-06  9.23   235  1.74  
##  7 1990-01-07  6.69   231 -0.0780
##  8 1990-01-08  7.96   235  0.546 
##  9 1990-01-09  7.27   250  0.114 
## 10 1990-01-10  9.51   214  1.84  
## # ℹ 8,269 more rows
…
