Chapter 4 Generalized linear models | Advanced Epidemiological Analysis
…
## [1] 7306

You can use this convention to add a column that gives days since the first
study date. While you could also use the 1:n() call to get a number for
each row that goes from 1 to the number of rows, that approach would not
catch any “skips” in dates in the data (e.g., missing dates if only warm-season
data are included). The use of the dates is more robust:

obs <- obs %>% 
  mutate(time = as.numeric(date) - first(as.numeric(date)))

obs %>% 
  select(date, time)

## # A tibble: 8,279 x 2
##    date        time
##    <date>     <dbl>
##  1 1990-01-01     0
##  2 1990-01-02     1
##  3 1990-01-03     2
##  4 1990-01-04     3
##  5 1990-01-05     4
##  6 1990-01-06     5
##  7 1990-01-07     6
##  8 1990-01-08     7
##  9 1990-01-09     8
## 10 1990-01-10     9
## # … with 8,269 more rows
…
