Chapter 10 Instrumental variables | Advanced Epidemiological Analysis
…
In this module, we’ll explore how you can understand, use, and code instrumental
variable analysis. We will introduce a new dataset, one from the NHANES I Epidemiologic Followup Study (NHEFS). (From the NCHS: “The NEHFS is a national longitudinal study, was jointly initiated by the National Center for Health Statistics (NCHS) and the National Institute on Aging in collaboration with other agencies of the Public Health Service. The NHEFS was designed to investigate the relationships between clinical, nutritional, and behavioral factors assessed in the first National Health and Nutrition Examination Survey NHANES I and subsequent morbidity, mortality, and hospital utilization, as well as changes in risk factors, functional limitation, and institutionalization.”)

The data subset from NEHFS consists of smokers (at baseline) followed between 1971 and 1982. The research question of interest is the effect of smoking cessation on 10-year weight change. We will explore the relationship between exposure and outcome based on traditional outcome regression and then try to generate an estimate for this effect using instrumental variable analysis.

10.3 The NHEFS data

Let’s explore the NHEFS dataset, which is the dataset used in the example highlighted
this chapter’s required reading, Hernán and Robins (2020a). You can download a copy from the GitHub page for this book, here. The data are saved in a csv format (that is, a plain text file, with commas used as the delimiter), and so they can be read into R using the read_csv function from the readr package (part of the tidyverse), similar to the previous datasets we have been using. If you have saved the data in a “data” subdirectory of your current working directory then you can use the following code:

library(tidyverse)
nhefs <- read_csv("data/nhefs.csv")
nhefs

## # A tibble: 1,629 × 64
##     seqn  qsmk death yrdth modth dadth   sbp   dbp   sex   age  race income
##    <dbl> <dbl> <dbl> <dbl> <dbl> <dbl> <dbl> <dbl> <dbl> <dbl> <dbl>  <dbl>
##  1   233     0     0    NA    NA    NA   175    96     0    42     1     19
##  2   235     0     0    NA    NA    NA   123    80     0    36     0     18
##  3   244     0     0    NA    NA    NA   115    75     1    56     1     15
##  4   245     0     1    85     2    14   148    78     0    68     1     15
##  5   252     0     0    NA    NA    NA   118    77     0    40     0     18
##  6   257     0     0    NA    NA    NA   141    83     1    43     1     11
##  7   262     0     0    NA    NA    NA   132    69     1    56     0     19
##  8   266     0     0    NA    NA    NA   100    53     1    29     0     22
##  9   419     0     1    84    10    13   163    79     0    51     0     18
## 10   420     0     1    86    10    17   184   106     0    43     0     16
## # ℹ 1,619 more rows
## # ℹ 52 more variables: marital <dbl>, school <dbl>, education <dbl>, ht <dbl>,
## #   wt71 <dbl>, wt82 <dbl>, wt82_71 <dbl>, birthplace <dbl>,
## #   smokeintensity <dbl>, smkintensity82_71 <dbl>, smokeyrs <dbl>,
## #   asthma <dbl>, bronch <dbl>, tb <dbl>, hf <dbl>, hbp <dbl>,
## #   pepticulcer <dbl>, colitis <dbl>, hepatitis <dbl>, chroniccough <dbl>,
## #   hayfever <dbl>, diabetes <dbl>, polio <dbl>, tumor <dbl>, …
…
