Chapter 7 Longitudinal cohort study designs | Advanced Epidemiological Analysis
…
## Warning: package 'readr' was built under R version 4.0.2

## Warning: package 'purrr' was built under R version 4.0.2

## Warning: package 'dplyr' was built under R version 4.0.2

## Warning: package 'stringr' was built under R version 4.0.2

## Warning: package 'forcats' was built under R version 4.0.2

fhs <- read_csv("data/frmgham2.csv")
fhs

## # A tibble: 11,627 x 39
##    RANDID   SEX TOTCHOL   AGE SYSBP DIABP CURSMOKE CIGPDAY   BMI DIABETES BPMEDS
##     <dbl> <dbl>   <dbl> <dbl> <dbl> <dbl>    <dbl>   <dbl> <dbl>    <dbl>  <dbl>
##  1   2448     1     195    39  106   70          0       0  27.0        0      0
##  2   2448     1     209    52  121   66          0       0  NA          0      0
##  3   6238     2     250    46  121   81          0       0  28.7        0      0
##  4   6238     2     260    52  105   69.5        0       0  29.4        0      0
##  5   6238     2     237    58  108   66          0       0  28.5        0      0
##  6   9428     1     245    48  128.  80          1      20  25.3        0      0
##  7   9428     1     283    54  141   89          1      30  25.3        0      0
##  8  10552     2     225    61  150   95          1      30  28.6        0      0
##  9  10552     2     232    67  183  109          1      20  30.2        0      0
## 10  11252     2     285    46  130   84          1      23  23.1        0      0
## # … with 11,617 more rows, and 28 more variables: HEARTRTE <dbl>,
## #   GLUCOSE <dbl>, educ <dbl>, PREVCHD <dbl>, PREVAP <dbl>, PREVMI <dbl>,
## #   PREVSTRK <dbl>, PREVHYP <dbl>, TIME <dbl>, PERIOD <dbl>, HDLC <dbl>,
## #   LDLC <dbl>, DEATH <dbl>, ANGINA <dbl>, HOSPMI <dbl>, MI_FCHD <dbl>,
## #   ANYCHD <dbl>, STROKE <dbl>, CVD <dbl>, HYPERTEN <dbl>, TIMEAP <dbl>,
## #   TIMEMI <dbl>, TIMEMIFC <dbl>, TIMECHD <dbl>, TIMESTRK <dbl>, TIMECVD <dbl>,
## #   TIMEDTH <dbl>, TIMEHYP <dbl>
…
The time spacing between observations is not constant. This is because the repeated observations in the Framingham Heart Study are the result of follow-up exams happening 3 to 5 years apart. Many longitudinal cohorts will instead have observations over a fixed time interval (monthly, annual, biannual etc), resulting in a more balanced dataset.

Observations are given for various risk factors, covariates and cardiovascular outcomes. Some will be invariant for each participant over time (SEX, educ), while others will vary with each exam.

From a data management perspective, we might want to change all the column names
to be in lowercase, rather than uppercase. This will save our pinkies some
work as we code with the data! You can make that change with the following
code, using the str_to_lower function from the stringr package (part of
the tidyverse):

fhs <- fhs %>% 
  rename_all(.funs = str_to_lower)
fhs

## # A tibble: 11,627 x 39
##    randid   sex totchol   age sysbp diabp cursmoke cigpday   bmi diabetes bpmeds
##     <dbl> <dbl>   <dbl> <dbl> <dbl> <dbl>    <dbl>   <dbl> <dbl>    <dbl>  <dbl>
##  1   2448     1     195    39  106   70          0       0  27.0        0      0
##  2   2448     1     209    52  121   66          0       0  NA          0      0
##  3   6238     2     250    46  121   81          0       0  28.7        0      0
##  4   6238     2     260    52  105   69.5        0       0  29.4        0      0
##  5   6238     2     237    58  108   66          0       0  28.5        0      0
##  6   9428     1     245    48  128.  80          1      20  25.3        0      0
##  7   9428     1     283    54  141   89          1      30  25.3        0      0
##  8  10552     2     225    61  150   95          1      30  28.6        0      0
##  9  10552     2     232    67  183  109          1      20  30.2        0      0
## 10  11252     2     285    46  130   84          1      23  23.1        0      0
## # … with 11,617 more rows, and 28 more variables: heartrte <dbl>,
## #   glucose <dbl>, educ <dbl>, prevchd <dbl>, prevap <dbl>, prevmi <dbl>,
## #   prevstrk <dbl>, prevhyp <dbl>, time <dbl>, period <dbl>, hdlc <dbl>,
## #   ldlc <dbl>, death <dbl>, angina <dbl>, hospmi <dbl>, mi_fchd <dbl>,
## #   anychd <dbl>, stroke <dbl>, cvd <dbl>, hyperten <dbl>, timeap <dbl>,
## #   timemi <dbl>, timemifc <dbl>, timechd <dbl>, timestrk <dbl>, timecvd <dbl>,
## #   timedth <dbl>, timehyp <dbl>
…
oldest_subjects <- fhs %>% 
  filter(period == 1 & age >= 69) %>% 
  pull(randid)
oldest_subjects

##  [1] 3603542 3762702 4726021 7198139 7351212 7568367 7659676 7695005 8723664
## [10] 9643995 9686180 9789948

Once we have the IDs of these study subjects (oldest_subjects), we can pull out the study data just for them. I’m limiting to a few columns: their ID (randid), the time of each examination (time), the number of each examination (period), whether they died during follow-up (died), and the number of days between the first examination and either death (if they died during follow-up) or censoring (i.e., stopped tracking the subject or lost them to follow-up) (timedth):

fhs %>% 
  filter(randid %in% oldest_subjects) %>% 
  select(randid, time, period, death, timedth)

## # A tibble: 24 x 5
##     randid  time period death timedth
##      <dbl> <dbl>  <dbl> <dbl>   <dbl>
##  1 3603542     0      1     1    1825
##  2 3762702     0      1     1    3076
##  3 3762702  2253      2     1    3076
##  4 4726021     0      1     1    4275
##  5 4726021  2134      2     1    4275
##  6 7198139     0      1     1    5384
##  7 7351212     0      1     1    4396
##  8 7351212  2146      2     1    4396
##  9 7351212  4283      3     1    4396
## 10 7568367     0      1     1    1563
## # … with 14 more rows
…
How many participants died during the observation period? What is the distribution of age at time of death?

The death variable in the fhs data is an indicator for mortality if a participant died at any point during follow-up. It is time-invariant: that is, it takes the value 1 if a participant died at any point during the follow-up period or 0 if they were alive at their end of follow-up, so we have to be careful on how to extract the actual number of deaths.

If you arrange by the random ID and look at period and death for each subject,
you can see that the death variable is the same for all periods for each
subject (this is what we mean by it being “time-invariant” in the data):

fhs %>% 
  arrange(randid) %>% 
  select(randid, period, death)

## # A tibble: 11,627 x 3
##    randid period death
##     <dbl>  <dbl> <dbl>
##  1   2448      1     0
##  2   2448      3     0
##  3   6238      1     0
##  4   6238      2     0
##  5   6238      3     0
##  6   9428      1     0
##  7   9428      2     0
##  8  10552      1     1
##  9  10552      2     1
## 10  11252      1     0
## # … with 11,617 more rows

We need to think some about this convention of recording the data when we count
the deaths.

It is often useful to extract the first (and sometimes last) observation, in order to assess certain covariate statistics on the individual level. We can create a dataset including only the first (or last) observation per participant from the fhs data using tidyverse tools. The group_by functions groups data by unique values of designated variables (here randid) and the slice function selects rows as designated. Here is an example of extracting the first row (group_by(randid) %>% slice(1L)) for each study subject:

fhs_first <- fhs %>% 
  group_by(randid) %>% 
  slice(1L) %>% # The L after the one clarifies that this is an integer
  ungroup()
fhs_first

## # A tibble: 4,434 x 39
##    randid   sex totchol   age sysbp diabp cursmoke cigpday   bmi diabetes bpmeds
##     <dbl> <dbl>   <dbl> <dbl> <dbl> <dbl>    <dbl>   <dbl> <dbl>    <dbl>  <dbl>
##  1   2448     1     195    39  106     70        0       0  27.0        0      0
##  2   6238     2     250    46  121     81        0       0  28.7        0      0
##  3   9428     1     245    48  128.    80        1      20  25.3        0      0
##  4  10552     2     225    61  150     95        1      30  28.6        0      0
##  5  11252     2     285    46  130     84        1      23  23.1        0      0
##  6  11263     2     228    43  180    110        0       0  30.3        0      0
##  7  12629     2     205    63  138     71        0       0  33.1        0      0
##  8  12806     2     313    45  100     71        1      20  21.7        0      0
##  9  14367     1     260    52  142.    89        0       0  26.4        0      0
## 10  16365     1     225    43  162    107        1      30  23.6        0      0
## # … with 4,424 more rows, and 28 more variables: heartrte <dbl>, glucose <dbl>,
## #   educ <dbl>, prevchd <dbl>, prevap <dbl>, prevmi <dbl>, prevstrk <dbl>,
## #   prevhyp <dbl>, time <dbl>, period <dbl>, hdlc <dbl>, ldlc <dbl>,
## #   death <dbl>, angina <dbl>, hospmi <dbl>, mi_fchd <dbl>, anychd <dbl>,
## #   stroke <dbl>, cvd <dbl>, hyperten <dbl>, timeap <dbl>, timemi <dbl>,
## #   timemifc <dbl>, timechd <dbl>, timestrk <dbl>, timecvd <dbl>,
## #   timedth <dbl>, timehyp <dbl>
…
fhs_first <- fhs %>% 
  group_by(randid) %>% 
  slice_head(n = 1) %>% 
  ungroup()

We can similarly select the last observation for each participant:

fhs_last <- fhs %>% 
  group_by(randid) %>% 
  slice(n()) %>% # The `n()` function gives the count of rows in a group 
  ungroup()
fhs_last

## # A tibble: 4,434 x 39
##    randid   sex totchol   age sysbp diabp cursmoke cigpday   bmi diabetes bpmeds
##     <dbl> <dbl>   <dbl> <dbl> <dbl> <dbl>    <dbl>   <dbl> <dbl>    <dbl>  <dbl>
##  1   2448     1     209    52   121    66        0       0  NA          0      0
##  2   6238     2     237    58   108    66        0       0  28.5        0      0
##  3   9428     1     283    54   141    89        1      30  25.3        0      0
##  4  10552     2     232    67   183   109        1      20  30.2        0      0
##  5  11252     2      NA    58   155    90        1      30  24.6        0      0
##  6  11263     2     220    55   180   106        0       0  31.2        1      1
##  7  12629     2     220    70   149    81        0       0  36.8        0      0
##  8  12806     2     320    57   110    46        1      30  22.0        0      0
##  9  14367     1     280    64   168   100        0       0  25.7        0      0
## 10  16365     1     211    55   173   123        0       0  29.1        0      1
## # … with 4,424 more rows, and 28 more variables: heartrte <dbl>, glucose <dbl>,
## #   educ <dbl>, prevchd <dbl>, prevap <dbl>, prevmi <dbl>, prevstrk <dbl>,
## #   prevhyp <dbl>, time <dbl>, period <dbl>, hdlc <dbl>, ldlc <dbl>,
## #   death <dbl>, angina <dbl>, hospmi <dbl>, mi_fchd <dbl>, anychd <dbl>,
## #   stroke <dbl>, cvd <dbl>, hyperten <dbl>, timeap <dbl>, timemi <dbl>,
## #   timemifc <dbl>, timechd <dbl>, timestrk <dbl>, timecvd <dbl>,
## #   timedth <dbl>, timehyp <dbl>
…
In order to estimate the distribution of age at death among those participants who died during follow-up we need to create a new age at death variable. First, we don’t know the age at death of any study subjects who died after follow-up (which could be the end of the study or when they were lost to follow-up). Therefore, when we calculate, we should filter the dataset to only include subjects who died during follow-up (filter(death == 1) a bit later in the code).

Next, we need to use information in the dataset to calculate the age at the time of death for the study subjects who died during follow-up.
The age variable in fhs represents the participant’s age at each visit. Typically a death would happen between visits so the last recorded value for age would be less than the age at death. We will instead use the timedth variable to help us determine the actual age at death. The value of timedth is the number of days from beginning of follow-up until death for those with death = 1, while it is a fixed value of timedth = 8766 (the maximum duration of follow-up) for those with death = 0 (did not die during follow-up).

We can create a new age at death variable for those with death = 1 using the age at baseline and timedth values:

fhs_first <- fhs_first %>% 
  mutate(timedthy = timedth / 365.25, # time-to-death in years
         agedth = age + timedthy) 

fhs_first 

## # A tibble: 4,434 x 41
##    randid   sex totchol   age sysbp diabp cursmoke cigpday   bmi diabetes bpmeds
##     <dbl> <dbl>   <dbl> <dbl> <dbl> <dbl>    <dbl>   <dbl> <dbl>    <dbl>  <dbl>
##  1   2448     1     195    39  106     70        0       0  27.0        0      0
##  2   6238     2     250    46  121     81        0       0  28.7        0      0
##  3   9428     1     245    48  128.    80        1      20  25.3        0      0
##  4  10552     2     225    61  150     95        1      30  28.6        0      0
##  5  11252     2     285    46  130     84        1      23  23.1        0      0
##  6  11263     2     228    43  180    110        0       0  30.3        0      0
##  7  12629     2     205    63  138     71        0       0  33.1        0      0
##  8  12806     2     313    45  100     71        1      20  21.7        0      0
##  9  14367     1     260    52  142.    89        0       0  26.4        0      0
## 10  16365     1     225    43  162    107        1      30  23.6        0      0
## # … with 4,424 more rows, and 30 more variables: heartrte <dbl>, glucose <dbl>,
## #   educ <dbl>, prevchd <dbl>, prevap <dbl>, prevmi <dbl>, prevstrk <dbl>,
## #   prevhyp <dbl>, time <dbl>, period <dbl>, hdlc <dbl>, ldlc <dbl>,
## #   death <dbl>, angina <dbl>, hospmi <dbl>, mi_fchd <dbl>, anychd <dbl>,
## #   stroke <dbl>, cvd <dbl>, hyperten <dbl>, timeap <dbl>, timemi <dbl>,
## #   timemifc <dbl>, timechd <dbl>, timestrk <dbl>, timecvd <dbl>,
## #   timedth <dbl>, timehyp <dbl>, timedthy <dbl>, agedth <dbl>
…
For the study subject with ID 6238, BMI changed a little bit across the three examinations, but not much, and the person remained a non-smoker. For the study subject with ID 16365, BMI increased steady across the examinations, and the person stopped smoking sometime after the first examination.

We will need to think about how to handle these variant values while we compare them to the invariant outcome (whether the subject was hospitalized for MI during follow-up). One thing that we could do is to see the association between average BMI for each study subject and whether they had a hospitalized MI event during follow-up:

bmi_vs_mi <- fhs %>% 
  group_by(randid) %>% 
  summarize(bmi = mean(bmi, rm.na = TRUE), 
            hospmi = first(hospmi))

## `summarise()` ungrouping output (override with `.groups` argument)

bmi_vs_mi

## # A tibble: 4,434 x 3
##    randid   bmi hospmi
##     <dbl> <dbl>  <dbl>
##  1   2448  NA        1
##  2   6238  28.9      0
##  3   9428  25.3      0
##  4  10552  29.4      0
##  5  11252  23.7      0
##  6  11263  30.9      0
##  7  12629  34.9      0
##  8  12806  22.0      0
##  9  14367  25.8      0
## 10  16365  26.7      0
## # … with 4,424 more rows
…
We can look at each piece of this. First, we can check the time-related variables we’ve added:

fhstv %>% 
  select(randid, period, time, time_next, time2)

## # A tibble: 11,627 x 5
##    randid period  time time_next time2
##     <dbl>  <dbl> <dbl>     <dbl> <dbl>
##  1   2448      1     0      4628  4627
##  2   2448      3  4628        NA  8766
##  3   6238      1     0      2156  2155
##  4   6238      2  2156      4344  4343
##  5   6238      3  4344        NA  8766
##  6   9428      1     0      2199  2198
##  7   9428      2  2199        NA  8766
##  8  10552      1     0      1977  1976
##  9  10552      2  1977        NA  2956
## 10  11252      1     0      2072  2071
## # … with 11,617 more rows
…
You can see that this added variable gives us the desired ordered categories for smoking:

fhstv_incMI %>% 
  select(randid, cigpday, smokingint)

## # A tibble: 11,253 x 3
## # Groups:   randid [4,348]
##    randid cigpday smokingint
##     <dbl> <fct>   <chr>     
##  1   2448 0       None      
##  2   2448 0       None      
##  3   6238 0       None      
##  4   6238 0       None      
##  5   6238 0       None      
##  6   9428 20      Heavy     
##  7   9428 30      Very Heavy
##  8  10552 30      Very Heavy
##  9  10552 20      Heavy     
## 10  11252 23      Very Heavy
## # … with 11,243 more rows
…
