Chapter 9 Mixed models | Advanced Epidemiological Analysis
…
fhs_sample

## # A tibble: 45 × 9
##     randid period sex      age sysbp cursmoke   bmi  educ  time
##      <dbl>  <dbl> <fct>  <dbl> <dbl>    <dbl> <dbl> <dbl> <dbl>
##  1 7112885      1 female    37   126        0  25.9     2     0
##  2 7112885      2 female    43   126        0  28.5     2  2113
##  3 7112885      3 female    49   130        0  29.2     2  4327
##  4 9356685      1 male      64   176        0  24.9     3     0
##  5 9356685      2 male      70   174        0  22.4     3  2129
##  6 9356685      3 male      75   190        0  27.0     3  4164
##  7 4452358      1 female    59   141        0  25.3     1     0
##  8 4452358      2 female    65   165        0  27.4     1  2104
##  9 4452358      3 female    71   154        0  26.4     1  4286
## 10 9694232      1 female    48   155        0  28.5     1     0
## # … with 35 more rows
…
The augment method will give results from the model at the level of each of your
original observations. For these models, it’s helpful to clarify that you want
to augment the original data (fhs_sample), rather than basing it on the model
matrix that’s the default. This will ensure that you can maintain information about
the randid for each row of the augmented data.

int_only_mm_mod %>% 
  augment(data = fhs_sample)

## # A tibble: 45 × 20
##     randid period sex      age sysbp cursmoke   bmi  educ  time .fitted  .resid
##      <dbl>  <dbl> <fct>  <dbl> <dbl>    <dbl> <dbl> <dbl> <dbl>   <dbl>   <dbl>
##  1 7112885      1 female    37   126        0  25.9     2     0    130.  -3.51 
##  2 7112885      2 female    43   126        0  28.5     2  2113    130.  -3.51 
##  3 7112885      3 female    49   130        0  29.2     2  4327    130.   0.492
##  4 9356685      1 male      64   176        0  24.9     3     0    175.   0.767
##  5 9356685      2 male      70   174        0  22.4     3  2129    175.  -1.23 
##  6 9356685      3 male      75   190        0  27.0     3  4164    175.  14.8  
##  7 4452358      1 female    59   141        0  25.3     1     0    152. -11.1  
##  8 4452358      2 female    65   165        0  27.4     1  2104    152.  12.9  
##  9 4452358      3 female    71   154        0  26.4     1  4286    152.   1.92 
## 10 9694232      1 female    48   155        0  28.5     1     0    146.   9.00 
## # … with 35 more rows, and 9 more variables: .hat <dbl>, .cooksd <dbl>,
## #   .fixed <dbl>, .mu <dbl>, .offset <dbl>, .sqrtXwt <dbl>, .sqrtrwt <dbl>,
## #   .weights <dbl>, .wtres <dbl>
…
