Chapter 5 Natural experiments | Advanced Epidemiological Analysis
…
# Load some packages that will likely be useful
library(tidyverse)
library(viridis)
library(lubridate)
library(broom)

# Load and clean the data
sicily <- read_csv("data/sicily.csv")

Once you read the data in, you should check it out:

sicily

## # A tibble: 59 x 7
##     year month  aces  time smokban     pop  stdpop
##    <dbl> <dbl> <dbl> <dbl>   <dbl>   <dbl>   <dbl>
##  1  2002     1   728     1       0 364277. 379875.
##  2  2002     2   659     2       0 364277. 376496.
##  3  2002     3   791     3       0 364277. 377041.
##  4  2002     4   734     4       0 364277. 377116.
##  5  2002     5   757     5       0 364277. 377383.
##  6  2002     6   726     6       0 364277. 374113.
##  7  2002     7   760     7       0 364277. 379513.
##  8  2002     8   740     8       0 364277. 376296.
##  9  2002     9   720     9       0 364277. 374653.
## 10  2002    10   814    10       0 364277. 378486.
## # … with 49 more rows
…
