Chapter 8 Some approaches for confounding | Advanced Epidemiological Analysis
…
We can check the first few rows of the new variable, as well as use a histogram to see how the ps_smokq variable divides the propensity scores into quartiles:

fhs_first %>% 
  select(ps, ps_smokq)

## # A tibble: 4,434 × 2
##       ps ps_smokq
##    <dbl> <fct>   
##  1 0.731 Q4      
##  2 0.450 Q2      
##  3 0.631 Q4      
##  4 0.274 Q1      
##  5 0.450 Q2      
##  6 0.488 Q2      
##  7 0.254 Q1      
##  8 0.463 Q2      
##  9 0.582 Q3      
## 10 0.688 Q4      
## # … with 4,424 more rows
…
