Chapter 3 Time series / case-crossover study designs | Advanced Epidemiological Analysis
…
Example datasets are available as part of the supplemental material for
both of the articles in this chapter’s readings. For Vicedo-Cabrera, Sera, and Gasparrini (2019),
the example data are available as the file “lndn_obs.csv.” These data are
saved in a csv format, and so they can be read into R using the
read_csv function from the readr package (part of the tidyverse).
For example, you can use the following code to read in these data,
assuming you have saved them in a “data” subdirectory of your current
working directory:

library(tidyverse) # Loads all the tidyverse packages, including readr
obs <- read_csv("data/lndn_obs.csv")
obs

## # A tibble: 8,279 x 14
##    date        year month   day   doy dow     all all_0_64 all_65_74 all_75_84
##    <date>     <dbl> <dbl> <dbl> <dbl> <chr> <dbl>    <dbl>     <dbl>     <dbl>
##  1 1990-01-01  1990     1     1     1 Mon     220       38        38        82
##  2 1990-01-02  1990     1     2     2 Tue     257       50        67        87
##  3 1990-01-03  1990     1     3     3 Wed     245       39        59        86
##  4 1990-01-04  1990     1     4     4 Thu     226       41        45        77
##  5 1990-01-05  1990     1     5     5 Fri     236       45        54        85
##  6 1990-01-06  1990     1     6     6 Sat     235       48        48        84
##  7 1990-01-07  1990     1     7     7 Sun     231       38        49        96
##  8 1990-01-08  1990     1     8     8 Mon     235       46        57        76
##  9 1990-01-09  1990     1     9     9 Tue     250       48        54        96
## 10 1990-01-10  1990     1    10    10 Wed     214       44        46        62
## # … with 8,269 more rows, and 4 more variables: all_85plus <dbl>, tmean <dbl>,
## #   tmin <dbl>, tmax <dbl>
…
