Chapter 3 Time series / case-crossover studies | Advanced Epidemiological Analysis
…
These data are saved in a csv format (that is, a plain text file, with commas
used as the delimiter), and so they can be read into R using the read_csv
function from the readr package (part of the tidyverse). For example, you can
use the following code to read in these data, assuming you have saved them in a
“data” subdirectory of your current working directory:

library(tidyverse) # Loads all the tidyverse packages, including readr
obs <- read_csv("data/lndn_obs.csv")
obs

## # A tibble: 8,279 x 14
##    date        year month   day   doy dow     all all_0_64 all_65_74 all_75_84
##    <date>     <dbl> <dbl> <dbl> <dbl> <chr> <dbl>    <dbl>     <dbl>     <dbl>
##  1 1990-01-01  1990     1     1     1 Mon     220       38        38        82
##  2 1990-01-02  1990     1     2     2 Tue     257       50        67        87
##  3 1990-01-03  1990     1     3     3 Wed     245       39        59        86
##  4 1990-01-04  1990     1     4     4 Thu     226       41        45        77
##  5 1990-01-05  1990     1     5     5 Fri     236       45        54        85
##  6 1990-01-06  1990     1     6     6 Sat     235       48        48        84
##  7 1990-01-07  1990     1     7     7 Sun     231       38        49        96
##  8 1990-01-08  1990     1     8     8 Mon     235       46        57        76
##  9 1990-01-09  1990     1     9     9 Tue     250       48        54        96
## 10 1990-01-10  1990     1    10    10 Wed     214       44        46        62
## # … with 8,269 more rows, and 4 more variables: all_85plus <dbl>, tmean <dbl>,
## #   tmin <dbl>, tmax <dbl>
…
## # A tibble: 2 x 5
##   term        estimate std.error statistic p.value
##   <chr>          <dbl>     <dbl>     <dbl>   <dbl>
## 1 (Intercept)   188.      0.736      255.        0
## 2 tmean          -2.37    0.0573     -41.3       0

Finally, the augment function returns data at the level of the original
observations, including the fitted value for each observation, the residual
between the fitted and true value, and some measures of influence on the model
fit.

augment(mod_linear_reg)

## # A tibble: 8,279 x 8
##      all tmean .fitted .resid .std.resid     .hat .sigma  .cooksd
##    <dbl> <dbl>   <dbl>  <dbl>      <dbl>    <dbl>  <dbl>    <dbl>
##  1   220  3.91    178.   41.6       1.46 0.000359   28.6 0.000380
##  2   257  5.55    175.   82.5       2.89 0.000268   28.6 0.00112 
##  3   245  4.39    177.   67.7       2.37 0.000330   28.6 0.000928
##  4   226  5.43    175.   51.2       1.79 0.000274   28.6 0.000440
##  5   236  6.87    171.   64.6       2.26 0.000211   28.6 0.000539
##  6   235  9.23    166.   69.2       2.42 0.000144   28.6 0.000420
##  7   231  6.69    172.   59.2       2.07 0.000218   28.6 0.000467
##  8   235  7.96    169.   66.2       2.31 0.000174   28.6 0.000467
##  9   250  7.27    170.   79.5       2.78 0.000197   28.6 0.000761
## 10   214  9.51    165.   48.9       1.71 0.000139   28.6 0.000202
## # … with 8,269 more rows
…
